{
	"name" : "mobile_switch_checkbox",
	"version" : "1.0.1",
	"description" : "This module enables to display checkbox as mobile toggling yes/no buttons.",
	"author" : {
		"name" 	: "Jonathan Hattab",
		"email" : "jonathanhattab@madjoh.com"
	},
	"dependencies" : {},
	"devDependencies" : {}
}